<?xml version="1.0" encoding="UTF-8"?>
<svg xmlns="http://www.w3.org/2000/svg" xmlns:xlink="http://www.w3.org/1999/xlink" width="242.476" height="120.051" viewBox="0 0 242.476 120.051">
<defs>
<g>
<g id="glyph-0-0">
</g>
<g id="glyph-0-1">
<path d="M 4.140625 -6.515625 L 3.984375 -6.65625 C 3.984375 -6.65625 3.609375 -6.1875 3.171875 -6.1875 C 2.9375 -6.1875 2.6875 -6.328125 2.515625 -6.4375 C 2.25 -6.59375 2.078125 -6.65625 1.90625 -6.65625 C 1.53125 -6.65625 1.328125 -6.4375 0.828125 -5.875 L 0.984375 -5.734375 C 0.984375 -5.734375 1.359375 -6.203125 1.796875 -6.203125 C 2.03125 -6.203125 2.28125 -6.0625 2.453125 -5.96875 C 2.71875 -5.796875 2.90625 -5.734375 3.078125 -5.734375 C 3.453125 -5.734375 3.640625 -5.953125 4.140625 -6.515625 Z M 4.140625 -6.515625 "/>
</g>
<g id="glyph-1-0">
</g>
<g id="glyph-1-1">
<path d="M 0.875 -0.59375 C 0.84375 -0.4375 0.78125 -0.203125 0.78125 -0.15625 C 0.78125 0.015625 0.921875 0.109375 1.078125 0.109375 C 1.203125 0.109375 1.375 0.03125 1.453125 -0.171875 C 1.46875 -0.203125 1.796875 -1.5625 1.84375 -1.75 C 1.921875 -2.078125 2.109375 -2.765625 2.15625 -3.046875 C 2.203125 -3.171875 2.484375 -3.640625 2.71875 -3.859375 C 2.796875 -3.921875 3.09375 -4.1875 3.515625 -4.1875 C 3.78125 -4.1875 3.921875 -4.0625 3.9375 -4.0625 C 3.640625 -4.015625 3.421875 -3.78125 3.421875 -3.515625 C 3.421875 -3.359375 3.53125 -3.171875 3.796875 -3.171875 C 4.0625 -3.171875 4.34375 -3.40625 4.34375 -3.765625 C 4.34375 -4.109375 4.03125 -4.40625 3.515625 -4.40625 C 2.875 -4.40625 2.4375 -3.921875 2.25 -3.640625 C 2.15625 -4.09375 1.796875 -4.40625 1.328125 -4.40625 C 0.875 -4.40625 0.6875 -4.015625 0.59375 -3.84375 C 0.421875 -3.5 0.296875 -2.90625 0.296875 -2.875 C 0.296875 -2.765625 0.390625 -2.765625 0.40625 -2.765625 C 0.515625 -2.765625 0.515625 -2.78125 0.578125 -3 C 0.75 -3.703125 0.953125 -4.1875 1.3125 -4.1875 C 1.46875 -4.1875 1.609375 -4.109375 1.609375 -3.734375 C 1.609375 -3.515625 1.578125 -3.40625 1.453125 -2.890625 Z M 0.875 -0.59375 "/>
</g>
<g id="glyph-1-2">
<path d="M 2.375 -6.8125 C 2.375 -6.8125 2.375 -6.921875 2.25 -6.921875 C 2.03125 -6.921875 1.296875 -6.84375 1.03125 -6.8125 C 0.953125 -6.8125 0.84375 -6.796875 0.84375 -6.625 C 0.84375 -6.5 0.9375 -6.5 1.09375 -6.5 C 1.5625 -6.5 1.578125 -6.4375 1.578125 -6.328125 C 1.578125 -6.265625 1.5 -5.921875 1.453125 -5.71875 L 0.625 -2.46875 C 0.515625 -1.96875 0.46875 -1.796875 0.46875 -1.453125 C 0.46875 -0.515625 1 0.109375 1.734375 0.109375 C 2.90625 0.109375 4.140625 -1.375 4.140625 -2.8125 C 4.140625 -3.71875 3.609375 -4.40625 2.8125 -4.40625 C 2.359375 -4.40625 1.9375 -4.109375 1.640625 -3.8125 Z M 1.453125 -3.046875 C 1.5 -3.265625 1.5 -3.28125 1.59375 -3.390625 C 2.078125 -4.03125 2.53125 -4.1875 2.796875 -4.1875 C 3.15625 -4.1875 3.421875 -3.890625 3.421875 -3.25 C 3.421875 -2.65625 3.09375 -1.515625 2.90625 -1.140625 C 2.578125 -0.46875 2.125 -0.109375 1.734375 -0.109375 C 1.390625 -0.109375 1.0625 -0.375 1.0625 -1.109375 C 1.0625 -1.3125 1.0625 -1.5 1.21875 -2.125 Z M 1.453125 -3.046875 "/>
</g>
<g id="glyph-1-3">
<path d="M 5.8125 -4.015625 C 5.921875 -4.125 5.921875 -4.140625 5.921875 -4.171875 C 5.921875 -4.234375 5.875 -4.296875 5.796875 -4.296875 C 5.734375 -4.296875 5.703125 -4.25 5.640625 -4.171875 L 3.359375 -1.640625 C 2.953125 -2.90625 2.875 -3.15625 2.65625 -3.671875 C 2.546875 -3.90625 2.328125 -4.40625 1.453125 -4.40625 C 0.875 -4.40625 0.609375 -3.890625 0.609375 -3.75 C 0.609375 -3.734375 0.609375 -3.65625 0.734375 -3.65625 C 0.8125 -3.65625 0.84375 -3.703125 0.859375 -3.765625 C 1 -4.140625 1.328125 -4.1875 1.390625 -4.1875 C 1.6875 -4.1875 1.984375 -3.421875 2.15625 -2.984375 C 2.46875 -2.203125 2.796875 -1.046875 2.796875 -1.015625 C 2.796875 -1 2.796875 -0.984375 2.71875 -0.90625 L 0.421875 1.65625 C 0.3125 1.765625 0.3125 1.78125 0.3125 1.8125 C 0.3125 1.875 0.375 1.9375 0.421875 1.9375 C 0.5 1.9375 0.546875 1.859375 0.59375 1.828125 L 2.875 -0.734375 C 3.1875 0.296875 3.3125 0.6875 3.546875 1.25 C 3.671875 1.546875 3.890625 2.046875 4.78125 2.046875 C 5.359375 2.046875 5.625 1.53125 5.625 1.390625 C 5.625 1.34375 5.609375 1.28125 5.515625 1.28125 C 5.40625 1.28125 5.40625 1.328125 5.375 1.421875 C 5.28125 1.671875 5.03125 1.828125 4.84375 1.828125 C 4.34375 1.828125 3.65625 -0.59375 3.4375 -1.359375 Z M 5.8125 -4.015625 "/>
</g>
<g id="glyph-2-0">
</g>
<g id="glyph-2-1">
<path d="M 5.1875 -1.578125 C 5.296875 -1.578125 5.46875 -1.578125 5.46875 -1.734375 C 5.46875 -1.921875 5.296875 -1.921875 5.1875 -1.921875 L 1.03125 -1.921875 C 0.921875 -1.921875 0.75 -1.921875 0.75 -1.75 C 0.75 -1.578125 0.90625 -1.578125 1.03125 -1.578125 Z M 5.1875 -1.578125 "/>
</g>
</g>
<clipPath id="clip-0">
<path clip-rule="nonzero" d="M 40 0 L 131 0 L 131 120.050781 L 40 120.050781 Z M 40 0 "/>
</clipPath>
<clipPath id="clip-1">
<path clip-rule="nonzero" d="M 111 0 L 203 0 L 203 120.050781 L 111 120.050781 Z M 111 0 "/>
</clipPath>
<clipPath id="clip-2">
<path clip-rule="nonzero" d="M 0 16 L 210 16 L 210 120.050781 L 0 120.050781 Z M 0 16 "/>
</clipPath>
<clipPath id="clip-3">
<path clip-rule="nonzero" d="M 33 0 L 242.476562 0 L 242.476562 104 L 33 104 Z M 33 0 "/>
</clipPath>
<clipPath id="clip-4">
<path clip-rule="nonzero" d="M 238 87 L 242.476562 87 L 242.476562 92 L 238 92 Z M 238 87 "/>
</clipPath>
<clipPath id="clip-5">
<path clip-rule="nonzero" d="M 232 82 L 242.476562 82 L 242.476562 98 L 232 98 Z M 232 82 "/>
</clipPath>
</defs>
<path fill="none" stroke-width="0.3985" stroke-linecap="butt" stroke-linejoin="miter" stroke="rgb(0%, 0%, 0%)" stroke-opacity="1" stroke-dasharray="2.98883 2.98883" stroke-miterlimit="10" d="M -119.054406 29.764281 L 119.054969 29.764281 " transform="matrix(1, 0, 0, -1, 121.238, 60.026)"/>
<path fill="none" stroke-width="0.3985" stroke-linecap="butt" stroke-linejoin="miter" stroke="rgb(0%, 0%, 0%)" stroke-opacity="1" stroke-dasharray="2.98883 2.98883" stroke-miterlimit="10" d="M -119.054406 -29.763063 L 119.054969 -29.763063 " transform="matrix(1, 0, 0, -1, 121.238, 60.026)"/>
<g clip-path="url(#clip-0)">
<path fill="none" stroke-width="0.3985" stroke-linecap="butt" stroke-linejoin="miter" stroke="rgb(0%, 0%, 0%)" stroke-opacity="1" stroke-dasharray="2.98883 2.98883" stroke-miterlimit="10" d="M -75.402062 59.529906 L 3.969031 -59.528688 " transform="matrix(1, 0, 0, -1, 121.238, 60.026)"/>
</g>
<g clip-path="url(#clip-1)">
<path fill="none" stroke-width="0.3985" stroke-linecap="butt" stroke-linejoin="miter" stroke="rgb(0%, 0%, 0%)" stroke-opacity="1" stroke-dasharray="2.98883 2.98883" stroke-miterlimit="10" d="M -3.968469 59.529906 L 75.402625 -59.528688 " transform="matrix(1, 0, 0, -1, 121.238, 60.026)"/>
</g>
<path fill="none" stroke-width="0.3985" stroke-linecap="butt" stroke-linejoin="miter" stroke="rgb(0%, 0%, 0%)" stroke-opacity="1" stroke-dasharray="2.98883 2.98883" stroke-miterlimit="10" d="M 15.875281 29.764281 L -15.874719 -29.763063 " transform="matrix(1, 0, 0, -1, 121.238, 60.026)"/>
<g clip-path="url(#clip-2)">
<path fill="none" stroke-width="0.99628" stroke-linecap="butt" stroke-linejoin="miter" stroke="rgb(0%, 0%, 0%)" stroke-opacity="1" stroke-miterlimit="10" d="M -119.054406 29.764281 C -11.905969 29.764281 15.875281 29.764281 73.801063 -57.122438 " transform="matrix(1, 0, 0, -1, 121.238, 60.026)"/>
</g>
<path fill-rule="nonzero" fill="rgb(0%, 0%, 0%)" fill-opacity="1" d="M 196.640625 119.554688 L 196 114.425781 L 195.039062 117.148438 L 192.152344 116.988281 "/>
<g clip-path="url(#clip-3)">
<path fill="none" stroke-width="0.99628" stroke-linecap="butt" stroke-linejoin="miter" stroke="rgb(0%, 0%, 0%)" stroke-opacity="1" stroke-miterlimit="10" d="M 119.054969 -29.763063 C 11.906531 -29.763063 -15.874719 -29.763063 -73.8005 57.123656 " transform="matrix(1, 0, 0, -1, 121.238, 60.026)"/>
</g>
<path fill-rule="nonzero" fill="rgb(0%, 0%, 0%)" fill-opacity="1" d="M 45.835938 0.496094 L 46.476562 5.625 L 47.4375 2.902344 L 50.324219 3.0625 "/>
<path fill="none" stroke-width="0.99628" stroke-linecap="butt" stroke-linejoin="miter" stroke="rgb(0%, 0%, 50%)" stroke-opacity="1" stroke-miterlimit="10" d="M -5.843469 -10.94275 L 5.844031 10.943969 " transform="matrix(1, 0, 0, -1, 121.238, 60.026)"/>
<path fill-rule="nonzero" fill="rgb(0%, 0%, 50%)" fill-opacity="1" d="M 114.035156 73.519531 L 118.25 70.53125 L 115.394531 70.96875 L 114.171875 68.351562 "/>
<path fill-rule="nonzero" fill="rgb(0%, 0%, 50%)" fill-opacity="1" d="M 128.441406 46.53125 L 124.226562 49.523438 L 127.082031 49.082031 L 128.304688 51.699219 "/>
<g fill="rgb(0%, 0%, 50%)" fill-opacity="1">
<use xlink:href="#glyph-0-1" x="121.112" y="72.31"/>
</g>
<g fill="rgb(0%, 0%, 50%)" fill-opacity="1">
<use xlink:href="#glyph-1-1" x="120.663" y="72.31"/>
</g>
<g fill="rgb(0%, 0%, 50%)" fill-opacity="1">
<use xlink:href="#glyph-2-1" x="125.158" y="73.804"/>
</g>
<path fill="none" stroke-width="0.3985" stroke-linecap="butt" stroke-linejoin="miter" stroke="rgb(0%, 0%, 0%)" stroke-opacity="1" stroke-miterlimit="10" d="M -119.054406 24.795531 L -119.054406 -26.778688 " transform="matrix(1, 0, 0, -1, 121.238, 60.026)"/>
<path fill-rule="nonzero" fill="rgb(0%, 0%, 0%)" fill-opacity="1" d="M 2.183594 33.238281 L 0.589844 36.425781 L 2.183594 35.230469 L 3.777344 36.425781 "/>
<path fill-rule="nonzero" fill="rgb(0%, 0%, 0%)" fill-opacity="1" d="M 2.183594 88.796875 L 3.777344 85.609375 L 2.183594 86.804688 L 0.589844 85.609375 "/>
<g fill="rgb(0%, 0%, 0%)" fill-opacity="1">
<use xlink:href="#glyph-1-2" x="3.877" y="64.477"/>
</g>
<path fill="none" stroke-width="0.3985" stroke-linecap="butt" stroke-linejoin="miter" stroke="rgb(0%, 0%, 0%)" stroke-opacity="1" stroke-miterlimit="10" d="M 27.781531 29.764281 C 27.781531 25.733031 25.738563 21.975219 22.359656 19.779906 " transform="matrix(1, 0, 0, -1, 121.238, 60.026)"/>
<g fill="rgb(0%, 0%, 0%)" fill-opacity="1">
<use xlink:href="#glyph-1-3" x="147.885" y="37.391"/>
</g>
<path fill="none" stroke-width="0.3985" stroke-linecap="butt" stroke-linejoin="miter" stroke="rgb(0%, 0%, 0%)" stroke-opacity="1" stroke-miterlimit="10" d="M -27.780969 -29.763063 C -27.780969 -25.731813 -25.738 -21.974 -22.359094 -19.778688 " transform="matrix(1, 0, 0, -1, 121.238, 60.026)"/>
<g fill="rgb(0%, 0%, 0%)" fill-opacity="1">
<use xlink:href="#glyph-1-3" x="88.358" y="85.013"/>
</g>
<path fill-rule="nonzero" fill="rgb(0%, 0%, 0%)" fill-opacity="1" stroke-width="0.3985" stroke-linecap="butt" stroke-linejoin="miter" stroke="rgb(0%, 0%, 0%)" stroke-opacity="1" stroke-miterlimit="10" d="M -117.070031 29.764281 C -117.070031 30.858031 -117.960656 31.748656 -119.054406 31.748656 C -120.152062 31.748656 -121.038781 30.858031 -121.038781 29.764281 C -121.038781 28.666625 -120.152062 27.779906 -119.054406 27.779906 C -117.960656 27.779906 -117.070031 28.666625 -117.070031 29.764281 Z M -117.070031 29.764281 " transform="matrix(1, 0, 0, -1, 121.238, 60.026)"/>
<g clip-path="url(#clip-4)">
<path fill-rule="nonzero" fill="rgb(0%, 0%, 0%)" fill-opacity="1" d="M 242.277344 89.789062 C 242.277344 88.695312 241.390625 87.804688 240.292969 87.804688 C 239.199219 87.804688 238.308594 88.695312 238.308594 89.789062 C 238.308594 90.886719 239.199219 91.773438 240.292969 91.773438 C 241.390625 91.773438 242.277344 90.886719 242.277344 89.789062 Z M 242.277344 89.789062 "/>
</g>
<g clip-path="url(#clip-5)">
<path fill="none" stroke-width="0.3985" stroke-linecap="butt" stroke-linejoin="miter" stroke="rgb(0%, 0%, 0%)" stroke-opacity="1" stroke-miterlimit="10" d="M 121.039344 -29.763063 C 121.039344 -28.669313 120.152625 -27.778688 119.054969 -27.778688 C 117.961219 -27.778688 117.070594 -28.669313 117.070594 -29.763063 C 117.070594 -30.860719 117.961219 -31.747438 119.054969 -31.747438 C 120.152625 -31.747438 121.039344 -30.860719 121.039344 -29.763063 Z M 121.039344 -29.763063 " transform="matrix(1, 0, 0, -1, 121.238, 60.026)"/>
</g>
<path fill-rule="nonzero" fill="rgb(50%, 50%, 50%)" fill-opacity="1" stroke-width="0.3985" stroke-linecap="butt" stroke-linejoin="miter" stroke="rgb(50%, 50%, 50%)" stroke-opacity="1" stroke-miterlimit="10" d="M 1.984656 -0.00134375 C 1.984656 1.096312 1.094031 1.983031 0.00028125 1.983031 C -1.097375 1.983031 -1.984094 1.096312 -1.984094 -0.00134375 C -1.984094 -1.095094 -1.097375 -1.985719 0.00028125 -1.985719 C 1.094031 -1.985719 1.984656 -1.095094 1.984656 -0.00134375 Z M 1.984656 -0.00134375 " transform="matrix(1, 0, 0, -1, 121.238, 60.026)"/>
</svg>
